%YAML 1.1
%TAG !u! tag:unity3d.com,2011:
--- !u!1 &124348
GameObject:
  m_ObjectHideFlags: 0
  m_CorrespondingSourceObject: {fileID: 0}
  m_PrefabInstance: {fileID: 0}
  m_PrefabAsset: {fileID: 0}
  serializedVersion: 6
  m_Component:
  - component: {fileID: 493484}
  - component: {fileID: 11423194}
  m_Layer: 0
  m_Name: ERProjectLog
  m_TagString: Untagged
  m_Icon: {fileID: 0}
  m_NavMeshLayer: 0
  m_StaticEditorFlags: 0
  m_IsActive: 1
--- !u!4 &493484
Transform:
  m_ObjectHideFlags: 0
  m_CorrespondingSourceObject: {fileID: 0}
  m_PrefabInstance: {fileID: 0}
  m_PrefabAsset: {fileID: 0}
  m_GameObject: {fileID: 124348}
  serializedVersion: 2
  m_LocalRotation: {x: 0, y: 0, z: 0, w: 1}
  m_LocalPosition: {x: 0, y: 0, z: 0}
  m_LocalScale: {x: 1, y: 1, z: 1}
  m_ConstrainProportionsScale: 0
  m_Children: []
  m_Father: {fileID: 0}
  m_LocalEulerAnglesHint: {x: 0, y: 0, z: 0}
--- !u!114 &11423194
MonoBehaviour:
  m_ObjectHideFlags: 0
  m_CorrespondingSourceObject: {fileID: 0}
  m_PrefabInstance: {fileID: 0}
  m_PrefabAsset: {fileID: 0}
  m_GameObject: {fileID: 124348}
  m_Enabled: 1
  m_EditorHideFlags: 0
  m_Script: {fileID: 353395545, guid: f56d46228aee4734f9114056c53bb57e, type: 3}
  m_Name: 
  m_EditorClassIdentifier: 
  QOQDQOOQDDQOOQ: []
  ints: 
  roadPresets:
  - roadTypeName: Default Road
    id: 0
    timestamp: 1450386558.4872544
    roadWidth: 5
    totalLanes: 0
    laneWidth: 0
    medianWidth: 0
    shoulderWidthLeft: 0
    shoulderWidthRight: 0
    advancedWidthSettings: 0
    faceDistance: 4
    angleTreshold: 45
    uvTiling: 1
    uv4Type: 0
    type: 0
    detailDistance: 0
    planarUVs: 0
    outerIndent: 0
    roadShapeDataActive: 0
    roadShapeData:
      nodes: []
      hardEdge: 
      priorityNodeIndexLeft: 0
      priorityNodeIndexRight: 0
      nodesV3: []
      lanes: []
      leftLanes: 0
      rightLanes: 0
      symmetrical: 0
      leftSidewalkOffset: 0
      rightSidewalkOffset: 0
      outerLaneMarkingLeftIndex: 0
      includeOuterlaneLeftInShape: 0
      includeOuterlaneRightInShape: 0
      outerLaneMarkingRightIndex: 0
      outerOuterLaneMarkingLeftIndex: 0
      outerOuterLaneMarkingRightIndex: 0
      selectedNode: 0
      selectedLaneNode: 0
      isSymmetrical: 0
      isset: 0
    minSpeed: 0
    maxSpeed: 0
    speedLimit: 0
    speedLimitConnections: 0
    roadShape: []
    roadShapeExt: []
    roadShapeExt2: []
    doConnectionTri: 
    doConnectionTriExt: 
    roadShapeUVs: []
    roadShapeExtUVs: []
    roadShapeExtUVs2: []
    roadShapeUVs2: []
    preserveUVs: 0
    hardEdge: 
    roadShapeVecsString: 
    defaultSidewalk: 0
    sidewalks: 0
    sidewalkHeight: 0.2
    sidewalkWidth: 2
    crosswalks: 0
    crosswalkIntervals: 0
    crosswalksIntersections: 0
    crosswalkPrefab: {fileID: 0}
    crosswalkHeightOffset: 0
    crosswalkType: 0
    roadMaterial: {fileID: 2100000, guid: f182e2714eb8a714a99ed091081ce16c, type: 2}
    roadMaterials: []
    roadPhysicsMaterial: {fileID: 2100000, guid: f182e2714eb8a714a99ed091081ce16c,
      type: 2}
    roadPhysicsMaterials: []
    connectionMaterial: {fileID: 2100000, guid: 3c555588afad81d428ad1704d5d015a7,
      type: 2}
    isSideObject: 0
    isCustomRoad: 0
    subSegments: 0
    soData: []
    soDataExt: []
    soDataLog: []
    layer: 0
    isStatic: 0
    tag: 
    splatMapActive: 0
    splatIndex: 0
    expandLevel: 1
    smoothLevel: 1
    splatOpacity: 1
    followTerrainContours: 0
    terrainContoursOffset: 0
    terrainDeformation: 1
    defaultIndent: 3
    defaultSurrounding: 3
    maxRoadheight: 0
    maxTerrainHeightOffset: 0
    minTerrainHeightDistance: 0
    maxTerrainHeightDistance: 0
    castShadow: 0
    randomnessFlag: 0
    randomYPosition: 0
    randomMinYPosition: 0
    randomMaxYPosition: 0
    minRandomYPositionDistance: 0
    maxRandomYPositionDistance: 0
    randomMinRotation: 0
    randomMaxRotation: 0
    minRandomRotationDistance: 0
    maxRandomRotationDistance: 0
    vegetationStudioMaskLineActive: 0
    vegetationStudioGrassPerimeter: 0
    vegetationStudioPlantPerimeter: 0
    vegetationStudioTreePerimeter: 0
    vegetationStudioObjectPerimeter: 0
    vegetationStudioLargeObjectPerimeter: 0
    vegetationStudioBiomeMaskActive: 0
    vegetationStudioBiomeMaskDistance: 0
    vegetationStudioBiomeMaskBlendDistance: 0
    vegetationStudioBiomeMaskNoiseScale: 0
    decalPresets: []
    decalClassPresets: []
    defaultRamp: 0
    extrusionType: 0
    extrusionDistance: 0
    fixedDistance: 0
    connectionAngle: 0
    connectionRadius: 0
    oneWay: 0
    cornerRadiusMainRoad: 0
    cornerSementsMainRoad: 0
    cornerRadiusSecondaryRoad: 0
    cornerRadiusSecondaryCurvature: 0
    cornerSementsSecondaryRoad: 0
    mainRoadsOnly: 0
    isRoadShape: 0
    controlType: 0
    vertexColor: {r: 0, g: 0, b: 0, a: 0}
    trafficPosts: []
    activeTrafficPostIndex: 0
    showTrafficPosts: 0
  crossingCornerPresets: []
  sidewalkPresets: []
  textureData: []
  presetAssets: []
  logIndex: 0
  updateInt: 2
  resourcesFolder: Resources
  projectid: 1435649968
