%YAML 1.1
%TAG !u! tag:unity3d.com,2011:
--- !u!74 &7400000
AnimationClip:
  m_ObjectHideFlags: 0
  m_CorrespondingSourceObject: {fileID: 0}
  m_PrefabInstance: {fileID: 0}
  m_PrefabAsset: {fileID: 0}
  m_Name: checkered_flag
  serializedVersion: 7
  m_Legacy: 0
  m_Compressed: 0
  m_UseHighQualityCurve: 1
  m_RotationCurves: []
  m_CompressedRotationCurves: []
  m_EulerCurves: []
  m_PositionCurves: []
  m_ScaleCurves: []
  m_FloatCurves: []
  m_PPtrCurves:
  - serializedVersion: 2
    curve:
    - time: 0
      value: {fileID: -354506170, guid: fd478f625f9b9e244b8b48a74ccf6bec, type: 3}
    - time: 0.083333336
      value: {fileID: 1757805906, guid: fd478f625f9b9e244b8b48a74ccf6bec, type: 3}
    - time: 0.16666667
      value: {fileID: 1224477404, guid: fd478f625f9b9e244b8b48a74ccf6bec, type: 3}
    - time: 0.25
      value: {fileID: 1216185132, guid: fd478f625f9b9e244b8b48a74ccf6bec, type: 3}
    - time: 0.33333334
      value: {fileID: 349820074, guid: fd478f625f9b9e244b8b48a74ccf6bec, type: 3}
    - time: 0.41666666
      value: {fileID: -179196678, guid: fd478f625f9b9e244b8b48a74ccf6bec, type: 3}
    - time: 0.5
      value: {fileID: -101932252, guid: fd478f625f9b9e244b8b48a74ccf6bec, type: 3}
    - time: 0.5833333
      value: {fileID: -1733789679, guid: fd478f625f9b9e244b8b48a74ccf6bec, type: 3}
    - time: 0.6666667
      value: {fileID: 1711076060, guid: fd478f625f9b9e244b8b48a74ccf6bec, type: 3}
    - time: 0.75
      value: {fileID: 1687985739, guid: fd478f625f9b9e244b8b48a74ccf6bec, type: 3}
    - time: 0.8333333
      value: {fileID: 1475033392, guid: fd478f625f9b9e244b8b48a74ccf6bec, type: 3}
    - time: 0.9166667
      value: {fileID: -1644084376, guid: fd478f625f9b9e244b8b48a74ccf6bec, type: 3}
    - time: 1
      value: {fileID: 376044606, guid: fd478f625f9b9e244b8b48a74ccf6bec, type: 3}
    - time: 1.0833334
      value: {fileID: -724315488, guid: fd478f625f9b9e244b8b48a74ccf6bec, type: 3}
    - time: 1.1666666
      value: {fileID: 453635771, guid: fd478f625f9b9e244b8b48a74ccf6bec, type: 3}
    - time: 1.25
      value: {fileID: 412988050, guid: fd478f625f9b9e244b8b48a74ccf6bec, type: 3}
    - time: 1.3333334
      value: {fileID: -1245731958, guid: fd478f625f9b9e244b8b48a74ccf6bec, type: 3}
    - time: 1.4166666
      value: {fileID: -1057983967, guid: fd478f625f9b9e244b8b48a74ccf6bec, type: 3}
    - time: 1.5
      value: {fileID: 43386769, guid: fd478f625f9b9e244b8b48a74ccf6bec, type: 3}
    - time: 1.5833334
      value: {fileID: -1822477228, guid: fd478f625f9b9e244b8b48a74ccf6bec, type: 3}
    - time: 1.6666666
      value: {fileID: 199513019, guid: fd478f625f9b9e244b8b48a74ccf6bec, type: 3}
    - time: 1.75
      value: {fileID: -336421330, guid: fd478f625f9b9e244b8b48a74ccf6bec, type: 3}
    - time: 1.8333334
      value: {fileID: -125470314, guid: fd478f625f9b9e244b8b48a74ccf6bec, type: 3}
    - time: 1.9166666
      value: {fileID: 1714007994, guid: fd478f625f9b9e244b8b48a74ccf6bec, type: 3}
    - time: 2
      value: {fileID: -1977973629, guid: fd478f625f9b9e244b8b48a74ccf6bec, type: 3}
    - time: 2.0833333
      value: {fileID: 477784548, guid: fd478f625f9b9e244b8b48a74ccf6bec, type: 3}
    - time: 2.1666667
      value: {fileID: 2056125630, guid: fd478f625f9b9e244b8b48a74ccf6bec, type: 3}
    - time: 2.25
      value: {fileID: 83456130, guid: fd478f625f9b9e244b8b48a74ccf6bec, type: 3}
    - time: 2.3333333
      value: {fileID: -784052208, guid: fd478f625f9b9e244b8b48a74ccf6bec, type: 3}
    - time: 2.4166667
      value: {fileID: 1607947878, guid: fd478f625f9b9e244b8b48a74ccf6bec, type: 3}
    - time: 2.5
      value: {fileID: 599206943, guid: fd478f625f9b9e244b8b48a74ccf6bec, type: 3}
    - time: 2.5833333
      value: {fileID: 1414406011, guid: fd478f625f9b9e244b8b48a74ccf6bec, type: 3}
    - time: 2.6666667
      value: {fileID: 1762149578, guid: fd478f625f9b9e244b8b48a74ccf6bec, type: 3}
    - time: 2.75
      value: {fileID: 472902392, guid: fd478f625f9b9e244b8b48a74ccf6bec, type: 3}
    - time: 2.8333333
      value: {fileID: 54375832, guid: fd478f625f9b9e244b8b48a74ccf6bec, type: 3}
    - time: 2.9166667
      value: {fileID: -1201093227, guid: fd478f625f9b9e244b8b48a74ccf6bec, type: 3}
    - time: 3
      value: {fileID: 1224145735, guid: fd478f625f9b9e244b8b48a74ccf6bec, type: 3}
    - time: 3.0833333
      value: {fileID: 162205666, guid: fd478f625f9b9e244b8b48a74ccf6bec, type: 3}
    - time: 3.1666667
      value: {fileID: 447774992, guid: fd478f625f9b9e244b8b48a74ccf6bec, type: 3}
    - time: 3.25
      value: {fileID: 380880006, guid: fd478f625f9b9e244b8b48a74ccf6bec, type: 3}
    - time: 3.3333333
      value: {fileID: -1196736037, guid: fd478f625f9b9e244b8b48a74ccf6bec, type: 3}
    - time: 3.4166667
      value: {fileID: -284694917, guid: fd478f625f9b9e244b8b48a74ccf6bec, type: 3}
    - time: 3.5
      value: {fileID: 1777778888, guid: fd478f625f9b9e244b8b48a74ccf6bec, type: 3}
    - time: 3.5833333
      value: {fileID: 973142238, guid: fd478f625f9b9e244b8b48a74ccf6bec, type: 3}
    - time: 3.6666667
      value: {fileID: -1405548607, guid: fd478f625f9b9e244b8b48a74ccf6bec, type: 3}
    - time: 3.75
      value: {fileID: 1316892902, guid: fd478f625f9b9e244b8b48a74ccf6bec, type: 3}
    - time: 3.8333333
      value: {fileID: 1459473851, guid: fd478f625f9b9e244b8b48a74ccf6bec, type: 3}
    - time: 3.9166667
      value: {fileID: -201813256, guid: fd478f625f9b9e244b8b48a74ccf6bec, type: 3}
    - time: 4
      value: {fileID: -2093529268, guid: fd478f625f9b9e244b8b48a74ccf6bec, type: 3}
    attribute: m_Sprite
    path: 
    classID: 212
    script: {fileID: 0}
    flags: 2
  m_SampleRate: 12
  m_WrapMode: 0
  m_Bounds:
    m_Center: {x: 0, y: 0, z: 0}
    m_Extent: {x: 0, y: 0, z: 0}
  m_ClipBindingConstant:
    genericBindings:
    - serializedVersion: 2
      path: 0
      attribute: 0
      script: {fileID: 0}
      typeID: 212
      customType: 23
      isPPtrCurve: 1
      isIntCurve: 0
      isSerializeReferenceCurve: 0
    pptrCurveMapping:
    - {fileID: -354506170, guid: fd478f625f9b9e244b8b48a74ccf6bec, type: 3}
    - {fileID: 1757805906, guid: fd478f625f9b9e244b8b48a74ccf6bec, type: 3}
    - {fileID: 1224477404, guid: fd478f625f9b9e244b8b48a74ccf6bec, type: 3}
    - {fileID: 1216185132, guid: fd478f625f9b9e244b8b48a74ccf6bec, type: 3}
    - {fileID: 349820074, guid: fd478f625f9b9e244b8b48a74ccf6bec, type: 3}
    - {fileID: -179196678, guid: fd478f625f9b9e244b8b48a74ccf6bec, type: 3}
    - {fileID: -101932252, guid: fd478f625f9b9e244b8b48a74ccf6bec, type: 3}
    - {fileID: -1733789679, guid: fd478f625f9b9e244b8b48a74ccf6bec, type: 3}
    - {fileID: 1711076060, guid: fd478f625f9b9e244b8b48a74ccf6bec, type: 3}
    - {fileID: 1687985739, guid: fd478f625f9b9e244b8b48a74ccf6bec, type: 3}
    - {fileID: 1475033392, guid: fd478f625f9b9e244b8b48a74ccf6bec, type: 3}
    - {fileID: -1644084376, guid: fd478f625f9b9e244b8b48a74ccf6bec, type: 3}
    - {fileID: 376044606, guid: fd478f625f9b9e244b8b48a74ccf6bec, type: 3}
    - {fileID: -724315488, guid: fd478f625f9b9e244b8b48a74ccf6bec, type: 3}
    - {fileID: 453635771, guid: fd478f625f9b9e244b8b48a74ccf6bec, type: 3}
    - {fileID: 412988050, guid: fd478f625f9b9e244b8b48a74ccf6bec, type: 3}
    - {fileID: -1245731958, guid: fd478f625f9b9e244b8b48a74ccf6bec, type: 3}
    - {fileID: -1057983967, guid: fd478f625f9b9e244b8b48a74ccf6bec, type: 3}
    - {fileID: 43386769, guid: fd478f625f9b9e244b8b48a74ccf6bec, type: 3}
    - {fileID: -1822477228, guid: fd478f625f9b9e244b8b48a74ccf6bec, type: 3}
    - {fileID: 199513019, guid: fd478f625f9b9e244b8b48a74ccf6bec, type: 3}
    - {fileID: -336421330, guid: fd478f625f9b9e244b8b48a74ccf6bec, type: 3}
    - {fileID: -125470314, guid: fd478f625f9b9e244b8b48a74ccf6bec, type: 3}
    - {fileID: 1714007994, guid: fd478f625f9b9e244b8b48a74ccf6bec, type: 3}
    - {fileID: -1977973629, guid: fd478f625f9b9e244b8b48a74ccf6bec, type: 3}
    - {fileID: 477784548, guid: fd478f625f9b9e244b8b48a74ccf6bec, type: 3}
    - {fileID: 2056125630, guid: fd478f625f9b9e244b8b48a74ccf6bec, type: 3}
    - {fileID: 83456130, guid: fd478f625f9b9e244b8b48a74ccf6bec, type: 3}
    - {fileID: -784052208, guid: fd478f625f9b9e244b8b48a74ccf6bec, type: 3}
    - {fileID: 1607947878, guid: fd478f625f9b9e244b8b48a74ccf6bec, type: 3}
    - {fileID: 599206943, guid: fd478f625f9b9e244b8b48a74ccf6bec, type: 3}
    - {fileID: 1414406011, guid: fd478f625f9b9e244b8b48a74ccf6bec, type: 3}
    - {fileID: 1762149578, guid: fd478f625f9b9e244b8b48a74ccf6bec, type: 3}
    - {fileID: 472902392, guid: fd478f625f9b9e244b8b48a74ccf6bec, type: 3}
    - {fileID: 54375832, guid: fd478f625f9b9e244b8b48a74ccf6bec, type: 3}
    - {fileID: -1201093227, guid: fd478f625f9b9e244b8b48a74ccf6bec, type: 3}
    - {fileID: 1224145735, guid: fd478f625f9b9e244b8b48a74ccf6bec, type: 3}
    - {fileID: 162205666, guid: fd478f625f9b9e244b8b48a74ccf6bec, type: 3}
    - {fileID: 447774992, guid: fd478f625f9b9e244b8b48a74ccf6bec, type: 3}
    - {fileID: 380880006, guid: fd478f625f9b9e244b8b48a74ccf6bec, type: 3}
    - {fileID: -1196736037, guid: fd478f625f9b9e244b8b48a74ccf6bec, type: 3}
    - {fileID: -284694917, guid: fd478f625f9b9e244b8b48a74ccf6bec, type: 3}
    - {fileID: 1777778888, guid: fd478f625f9b9e244b8b48a74ccf6bec, type: 3}
    - {fileID: 973142238, guid: fd478f625f9b9e244b8b48a74ccf6bec, type: 3}
    - {fileID: -1405548607, guid: fd478f625f9b9e244b8b48a74ccf6bec, type: 3}
    - {fileID: 1316892902, guid: fd478f625f9b9e244b8b48a74ccf6bec, type: 3}
    - {fileID: 1459473851, guid: fd478f625f9b9e244b8b48a74ccf6bec, type: 3}
    - {fileID: -201813256, guid: fd478f625f9b9e244b8b48a74ccf6bec, type: 3}
    - {fileID: -2093529268, guid: fd478f625f9b9e244b8b48a74ccf6bec, type: 3}
  m_AnimationClipSettings:
    serializedVersion: 2
    m_AdditiveReferencePoseClip: {fileID: 0}
    m_AdditiveReferencePoseTime: 0
    m_StartTime: 0
    m_StopTime: 4.0833335
    m_OrientationOffsetY: 0
    m_Level: 0
    m_CycleOffset: 0
    m_HasAdditiveReferencePose: 0
    m_LoopTime: 1
    m_LoopBlend: 0
    m_LoopBlendOrientation: 0
    m_LoopBlendPositionY: 0
    m_LoopBlendPositionXZ: 0
    m_KeepOriginalOrientation: 0
    m_KeepOriginalPositionY: 1
    m_KeepOriginalPositionXZ: 0
    m_HeightFromFeet: 0
    m_Mirror: 0
  m_EditorCurves: []
  m_EulerEditorCurves: []
  m_HasGenericRootTransform: 0
  m_HasMotionFloatCurves: 0
  m_Events: []
